Compute activity accumulation metrics — compute_accumulation_metrics • activAnalyzer
…
#> 
#> $recap_bouts_by_day
#> # A tibble: 343 × 7
#> # Groups:   date, new_bout [343]
#>    date       new_bout new_intensity_category duration start  end    dur_cat
#>    <date>        <dbl> <fct>                     <dbl> <time> <time> <chr>  
#>  1 2021-04-07        3 SED                          26 09:15  09:40  0-29   
#>  2 2021-04-07        5 SED                           8 09:42  09:49  0-29   
#>  3 2021-04-07        7 SED                           5 09:52  09:56  0-29   
#>  4 2021-04-07        9 SED                           2 09:58  09:59  0-29   
#>  5 2021-04-07       11 SED                           4 10:04  10:07  0-29   
#>  6 2021-04-07       13 SED                           3 10:10  10:12  0-29   
#>  7 2021-04-07       15 SED                           1 10:15  10:15  0-29   
#>  8 2021-04-07       17 SED                          17 10:19  10:35  0-29   
#>  9 2021-04-07       19 SED                           9 10:37  10:45  0-29   
#> 10 2021-04-07       21 SED                           1 11:10  11:10  0-29   
#> # ℹ 333 more rows
#> 
#> $recap_bouts
#> # A tibble: 343 × 4
#> # Groups:   new_bout [343]
#>    new_bout new_intensity_category duration dur_cat
#>       <dbl> <fct>                     <dbl> <chr>  
#>  1        3 SED                          26 0-29   
#>  2        5 SED                           8 0-29   
#>  3        7 SED                           5 0-29   
#>  4        9 SED                           2 0-29   
#>  5       11 SED                           4 0-29   
#>  6       13 SED                           3 0-29   
#>  7       15 SED                           1 0-29   
#>  8       17 SED                          17 0-29   
#>  9       19 SED                           9 0-29   
#> 10       21 SED                           1 0-29   
#> # ℹ 333 more rows
#> 
#> $summarised_bouts
#> # A tibble: 27 × 6
#>    duration     n dur_cat  prod cum_frac_time cum_frac_bout
#>       <dbl> <int> <chr>   <dbl>         <dbl>         <dbl>
#>  1        1   145 0-29      145         0.102         0.423
#>  2        2    58 0-29      116         0.184         0.592
#>  3        3    37 0-29      111         0.263         0.700
#>  4        4    25 0-29      100         0.334         0.773
#>  5        5    19 0-29       95         0.401         0.828
#>  6        6     8 0-29       48         0.435         0.851
#>  7        7     9 0-29       63         0.479         0.878
#>  8        8     6 0-29       48         0.513         0.895
#>  9        9     3 0-29       27         0.532         0.904
#> 10       10     5 0-29       50         0.567         0.918
#> # ℹ 17 more rows
#> 
#> $summarised_bouts2
#> # A tibble: 27 × 6
#>    duration     n dur_cat  prod cum_frac_time cum_frac_bout
#>       <dbl> <int> <chr>   <dbl>         <dbl>         <dbl>
#>  1       74     1 60-89      74        0.0523       0.00292
#>  2       45     1 30-59      45        0.0841       0.00583
#>  3       41     1 30-59      41        0.113        0.00875
#>  4       40     1 30-59      40        0.141        0.0117 
#>  5       34     1 30-59      34        0.165        0.0146 
#>  6       32     1 30-59      32        0.188        0.0175 
#>  7       29     1 0-29       29        0.208        0.0204 
#>  8       26     1 0-29       26        0.227        0.0233 
#>  9       19     1 0-29       19        0.240        0.0262 
#> 10       18     2 0-29       36        0.266        0.0321 
#> # ℹ 17 more rows
…
