Read activity counts from an *.agd file — read_agd • activAnalyzer
…
    The AGD file format is described in the ActiLife 6 Manual.
https://actigraphcorp.com/support/manuals/actilife-6-manual/

    See also

    read_agd_raw()

    Examples

file <- system.file("extdata", "acc.agd",
  package = "activAnalyzer"
)
read_agd(file)
#> # A tibble: 41,400 × 10
#>    timestamp           axis1 axis2 axis3 steps   lux inclineoff inclinestanding
#>  * <dttm>              <int> <int> <int> <int> <int>      <int>           <int>
#>  1 2021-04-07 06:00:00     0     0     0     0     0         10               0
#>  2 2021-04-07 06:00:10     0     0     0     0     0         10               0
#>  3 2021-04-07 06:00:20     0     0     0     0     0         10               0
#>  4 2021-04-07 06:00:30     0     0     0     0     0         10               0
#>  5 2021-04-07 06:00:40     0     0     0     0     0         10               0
#>  6 2021-04-07 06:00:50     0     0     0     0     0         10               0
#>  7 2021-04-07 06:01:00     0     0     0     0     0         10               0
#>  8 2021-04-07 06:01:10     0     0     0     0     0         10               0
#>  9 2021-04-07 06:01:20     0     0     0     0     0         10               0
#> 10 2021-04-07 06:01:30     0     0     0     0     0         10               0
#> # … with 41,390 more rows, and 2 more variables: inclinesitting <int>,
#> #   inclinelying <int>
…
